Assay_Type_s	AvgSpotLen_l	BioSample_s	Experiment_s	LibraryLayout_s	LibrarySelection_s	LibrarySource_s	MBases_l	MBytes_l	Run_s	SRA_Sample_s	Sample_Name_s	infection_s	phenotype_s	source_name_s	BioProject_s	Center_Name_s	Consent_s	InsertSize_l	Instrument_s	LoadDate_s	Organism_s	Platform_s	ReleaseDate_s	SRA_Study_s	cell_type_s	strain_s
OTHER	99	SAMN05930307	SRX2254726	PAIRED	other	GENOMIC	2864	1217	SRR4435490	SRS1754325	GSM2356780	LCMV Arm5	Effector	Spleen CD8+ T cell_effector_ATAC-seq	PRJNA349462	GEO	public	0	Illumina HiSeq 2500	2016-10-20	Mus musculus	ILLUMINA	2016-12-13	SRP091863	Spleen CD8+ T cell	C57BL/6
OTHER	98	SAMN05930306	SRX2254727	PAIRED	other	GENOMIC	2239	951	SRR4435491	SRS1754326	GSM2356781	LCMV Arm5	Effector	Spleen CD8+ T cell_effector_ATAC-seq	PRJNA349462	GEO	public	0	Illumina HiSeq 2500	2016-10-20	Mus musculus	ILLUMINA	2016-12-13	SRP091863	Spleen CD8+ T cell	C57BL/6
OTHER	99	SAMN05930305	SRX2254728	PAIRED	other	GENOMIC	2563	1109	SRR4435492	SRS1754327	GSM2356782	LCMV Arm5	Effector	Spleen CD8+ T cell_effector_ATAC-seq	PRJNA349462	GEO	public	0	Illumina HiSeq 2500	2016-10-20	Mus musculus	ILLUMINA	2016-12-13	SRP091863	Spleen CD8+ T cell	C57BL/6
OTHER	99	SAMN05930303	SRX2254730	PAIRED	other	GENOMIC	3553	1568	SRR4435494	SRS1754329	GSM2356784	LCMV Arm5	Memory	Spleen CD8+ T cell_memory_ATAC-seq	PRJNA349462	GEO	public	0	Illumina HiSeq 2500	2016-10-20	Mus musculus	ILLUMINA	2016-12-13	SRP091863	Spleen CD8+ T cell	C57BL/6
OTHER	99	SAMN05930302	SRX2254731	PAIRED	other	GENOMIC	1991	850	SRR4435495	SRS1754330	GSM2356785	LCMV Arm5	Memory	Spleen CD8+ T cell_memory_ATAC-seq	PRJNA349462	GEO	public	0	Illumina HiSeq 2500	2016-10-20	Mus musculus	ILLUMINA	2016-12-13	SRP091863	Spleen CD8+ T cell	C57BL/6
OTHER	98	SAMN05930339	SRX2254741	PAIRED	other	GENOMIC	2706	1145	SRR4435505	SRS1754340	GSM2356795	none	Naive	Spleen CD8+ T cell_naive_ATAC-seq	PRJNA349462	GEO	public	0	Illumina HiSeq 2500	2016-10-20	Mus musculus	ILLUMINA	2016-12-13	SRP091863	Spleen CD8+ T cell	C57BL/6
OTHER	99	SAMN05930337	SRX2254742	PAIRED	other	GENOMIC	2627	1106	SRR4435506	SRS1754341	GSM2356796	none	Naive	Spleen CD8+ T cell_naive_ATAC-seq	PRJNA349462	GEO	public	0	Illumina HiSeq 2500	2016-10-20	Mus musculus	ILLUMINA	2016-12-13	SRP091863	Spleen CD8+ T cell	C57BL/6
OTHER	99	SAMN05930336	SRX2254743	PAIRED	other	GENOMIC	2287	1095	SRR4435507	SRS1754342	GSM2356797	none	Naive	Spleen CD8+ T cell_naive_ATAC-seq	PRJNA349462	GEO	public	0	Illumina HiSeq 2500	2016-10-20	Mus musculus	ILLUMINA	2016-12-13	SRP091863	Spleen CD8+ T cell	C57BL/6
OTHER	99	SAMN05930335	SRX2254744	PAIRED	other	GENOMIC	2818	1211	SRR4435508	SRS1754343	GSM2356798	none	Naive	Spleen CD8+ T cell_naive_ATAC-seq	PRJNA349462	GEO	public	0	Illumina HiSeq 2500	2016-10-20	Mus musculus	ILLUMINA	2016-12-13	SRP091863	Spleen CD8+ T cell	C57BL/6
OTHER	99	SAMN05930338	SRX2254745	PAIRED	other	GENOMIC	3008	1289	SRR4435509	SRS1754344	GSM2356799	none	Naive	Spleen CD8+ T cell_naive_ATAC-seq	PRJNA349462	GEO	public	0	Illumina HiSeq 2500	2016-10-20	Mus musculus	ILLUMINA	2016-12-13	SRP091863	Spleen CD8+ T cell	C57BL/6
OTHER	100	SAMN05930324	SRX2254756	PAIRED	other	GENOMIC	3533	1631	SRR4435520	SRS1754355	GSM2356810	LCMV Arm5	SLEC	Spleen CD8+ T cell_SLEC_ATAC-seq	PRJNA349462	GEO	public	0	Illumina HiSeq 2500	2016-10-20	Mus musculus	ILLUMINA	2016-12-13	SRP091863	Spleen CD8+ T cell	C57BL/6
OTHER	100	SAMN05930323	SRX2254757	PAIRED	other	GENOMIC	3482	1610	SRR4435521	SRS1754356	GSM2356811	LCMV Arm5	SLEC	Spleen CD8+ T cell_SLEC_ATAC-seq	PRJNA349462	GEO	public	0	Illumina HiSeq 2500	2016-10-20	Mus musculus	ILLUMINA	2016-12-13	SRP091863	Spleen CD8+ T cell	C57BL/6
OTHER	100	SAMN05930322	SRX2254758	PAIRED	other	GENOMIC	3472	1599	SRR4435522	SRS1754357	GSM2356812	LCMV Arm5	SLEC	Spleen CD8+ T cell_SLEC_ATAC-seq	PRJNA349462	GEO	public	0	Illumina HiSeq 2500	2016-10-20	Mus musculus	ILLUMINA	2016-12-13	SRP091863	Spleen CD8+ T cell	C57BL/6
OTHER	100	SAMN05930321	SRX2254759	PAIRED	other	GENOMIC	3606	1653	SRR4435523	SRS1754358	GSM2356813	LCMV Arm5	MPEC	Spleen CD8+ T cell_MPEC_ATAC-seq	PRJNA349462	GEO	public	0	Illumina HiSeq 2500	2016-10-20	Mus musculus	ILLUMINA	2016-12-13	SRP091863	Spleen CD8+ T cell	C57BL/6
OTHER	100	SAMN05930320	SRX2254760	PAIRED	other	GENOMIC	4599	2108	SRR4435524	SRS1754359	GSM2356814	LCMV Arm5	MPEC	Spleen CD8+ T cell_MPEC_ATAC-seq	PRJNA349462	GEO	public	0	Illumina HiSeq 2500	2016-10-20	Mus musculus	ILLUMINA	2016-12-13	SRP091863	Spleen CD8+ T cell	C57BL/6
OTHER	100	SAMN05930319	SRX2254761	PAIRED	other	GENOMIC	4901	2249	SRR4435525	SRS1754360	GSM2356815	LCMV Arm5	MPEC	Spleen CD8+ T cell_MPEC_ATAC-seq	PRJNA349462	GEO	public	0	Illumina HiSeq 2500	2016-10-20	Mus musculus	ILLUMINA	2016-12-13	SRP091863	Spleen CD8+ T cell	C57BL/6
RNA-Seq	50	SAMN05930318	SRX2254762	SINGLE	cDNA	TRANSCRIPTOMIC	675	429	SRR4435526	SRS1754361	GSM2356816	LCMV Arm5	Naive	Spleen CD8+ T cell_Naïve_RNA-seq	PRJNA349462	GEO	public	0	Illumina HiSeq 2500	2016-10-20	Mus musculus	ILLUMINA	2016-12-13	SRP091863	Spleen CD8+ T cell	C57BL/6
RNA-Seq	50	SAMN05930318	SRX2254762	SINGLE	cDNA	TRANSCRIPTOMIC	698	445	SRR4435527	SRS1754361	GSM2356816	LCMV Arm5	Naive	Spleen CD8+ T cell_Naïve_RNA-seq	PRJNA349462	GEO	public	0	Illumina HiSeq 2500	2016-10-20	Mus musculus	ILLUMINA	2016-12-13	SRP091863	Spleen CD8+ T cell	C57BL/6
RNA-Seq	50	SAMN05930317	SRX2254763	SINGLE	cDNA	TRANSCRIPTOMIC	405	258	SRR4435528	SRS1754362	GSM2356817	LCMV Arm5	Naive	Spleen CD8+ T cell_Naïve_RNA-seq	PRJNA349462	GEO	public	0	Illumina HiSeq 2500	2016-10-20	Mus musculus	ILLUMINA	2016-12-13	SRP091863	Spleen CD8+ T cell	C57BL/6
RNA-Seq	50	SAMN05930317	SRX2254763	SINGLE	cDNA	TRANSCRIPTOMIC	425	272	SRR4435529	SRS1754362	GSM2356817	LCMV Arm5	Naive	Spleen CD8+ T cell_Naïve_RNA-seq	PRJNA349462	GEO	public	0	Illumina HiSeq 2500	2016-10-20	Mus musculus	ILLUMINA	2016-12-13	SRP091863	Spleen CD8+ T cell	C57BL/6
RNA-Seq	50	SAMN05930316	SRX2254764	SINGLE	cDNA	TRANSCRIPTOMIC	672	425	SRR4435530	SRS1754363	GSM2356818	LCMV Arm5	Effector	Spleen CD8+ T cell_Effector_RNA-seq	PRJNA349462	GEO	public	0	Illumina HiSeq 2500	2016-10-20	Mus musculus	ILLUMINA	2016-12-13	SRP091863	Spleen CD8+ T cell	C57BL/6
RNA-Seq	50	SAMN05930316	SRX2254764	SINGLE	cDNA	TRANSCRIPTOMIC	694	441	SRR4435531	SRS1754363	GSM2356818	LCMV Arm5	Effector	Spleen CD8+ T cell_Effector_RNA-seq	PRJNA349462	GEO	public	0	Illumina HiSeq 2500	2016-10-20	Mus musculus	ILLUMINA	2016-12-13	SRP091863	Spleen CD8+ T cell	C57BL/6
RNA-Seq	50	SAMN05930315	SRX2254765	SINGLE	cDNA	TRANSCRIPTOMIC	534	339	SRR4435532	SRS1754364	GSM2356819	LCMV Arm5	Effector	Spleen CD8+ T cell_Effector_RNA-seq	PRJNA349462	GEO	public	0	Illumina HiSeq 2500	2016-10-20	Mus musculus	ILLUMINA	2016-12-13	SRP091863	Spleen CD8+ T cell	C57BL/6
RNA-Seq	50	SAMN05930315	SRX2254765	SINGLE	cDNA	TRANSCRIPTOMIC	554	353	SRR4435533	SRS1754364	GSM2356819	LCMV Arm5	Effector	Spleen CD8+ T cell_Effector_RNA-seq	PRJNA349462	GEO	public	0	Illumina HiSeq 2500	2016-10-20	Mus musculus	ILLUMINA	2016-12-13	SRP091863	Spleen CD8+ T cell	C57BL/6
RNA-Seq	50	SAMN05930314	SRX2254766	SINGLE	cDNA	TRANSCRIPTOMIC	758	476	SRR4435534	SRS1754365	GSM2356820	LCMV Arm5	Memory	Spleen CD8+ T cell_Memory_RNA-seq	PRJNA349462	GEO	public	0	Illumina HiSeq 2500	2016-10-20	Mus musculus	ILLUMINA	2016-12-13	SRP091863	Spleen CD8+ T cell	C57BL/6
RNA-Seq	50	SAMN05930314	SRX2254766	SINGLE	cDNA	TRANSCRIPTOMIC	786	495	SRR4435535	SRS1754365	GSM2356820	LCMV Arm5	Memory	Spleen CD8+ T cell_Memory_RNA-seq	PRJNA349462	GEO	public	0	Illumina HiSeq 2500	2016-10-20	Mus musculus	ILLUMINA	2016-12-13	SRP091863	Spleen CD8+ T cell	C57BL/6
RNA-Seq	50	SAMN05930313	SRX2254767	SINGLE	cDNA	TRANSCRIPTOMIC	487	309	SRR4435536	SRS1754366	GSM2356821	LCMV Arm5	Memory	Spleen CD8+ T cell_Memory_RNA-seq	PRJNA349462	GEO	public	0	Illumina HiSeq 2500	2016-10-20	Mus musculus	ILLUMINA	2016-12-13	SRP091863	Spleen CD8+ T cell	C57BL/6
RNA-Seq	50	SAMN05930313	SRX2254767	SINGLE	cDNA	TRANSCRIPTOMIC	505	322	SRR4435537	SRS1754366	GSM2356821	LCMV Arm5	Memory	Spleen CD8+ T cell_Memory_RNA-seq	PRJNA349462	GEO	public	0	Illumina HiSeq 2500	2016-10-20	Mus musculus	ILLUMINA	2016-12-13	SRP091863	Spleen CD8+ T cell	C57BL/6
